…
```r
set.seed(2101)
bootstrapped <- 
  bioChemists %>%
  specify(art ~ fem)  %>%
  generate(reps = 2000, type = "bootstrap") %>%
  calculate(stat = "diff in means", order = c("Men", "Women"))
bootstrapped
```

```
## Response: art (numeric)
## Explanatory: fem (factor)
## # A tibble: 2,000 × 2
##    replicate  stat
##        <int> <dbl>
##  1         1 0.467
##  2         2 0.107
##  3         3 0.467
##  4         4 0.308
##  5         5 0.369
##  6         6 0.428
##  7         7 0.272
##  8         8 0.587
##  9         9 0.468
## 10        10 0.432
## # ℹ 1,990 more rows
```
…
```
## Response: art (numeric)
## Explanatory: fem (factor)
## Null Hypothesis: independence
## # A tibble: 2,000 × 2
##    replicate     stat
##        <int>    <dbl>
##  1         1  0.201  
##  2         2 -0.133  
##  3         3  0.109  
##  4         4 -0.195  
##  5         5 -0.00128
##  6         6 -0.102  
##  7         7 -0.102  
##  8         8 -0.0497 
##  9         9  0.0119 
## 10        10 -0.146  
## # ℹ 1,990 more rows
```
…
